%YAML 1.1
%TAG !u! tag:unity3d.com,2011:
--- !u!74 &7400000
AnimationClip:
  m_ObjectHideFlags: 0
  m_PrefabParentObject: {fileID: 0}
  m_PrefabInternal: {fileID: 0}
  m_Name: LeftToRight03
  serializedVersion: 6
  m_Legacy: 0
  m_Compressed: 0
  m_UseHighQualityCurve: 1
  m_RotationCurves: []
  m_CompressedRotationCurves: []
  m_EulerCurves: []
  m_PositionCurves:
  - curve:
      serializedVersion: 2
      m_Curve:
      - time: 0
        value: {x: 42.33, y: -2.28, z: 15.51}
        inSlope: {x: 0, y: 0, z: 3.3559997}
        outSlope: {x: 0, y: 0, z: 3.3559997}
        tangentMode: 0
      - time: 2.5
        value: {x: 42.33, y: -2.28, z: 23.9}
        inSlope: {x: 0, y: 0, z: -0.026000023}
        outSlope: {x: 0, y: 0, z: -0.026000023}
        tangentMode: 0
      - time: 5
        value: {x: 42.33, y: -2.28, z: 15.38}
        inSlope: {x: 0, y: 0, z: -3.4079998}
        outSlope: {x: 0, y: 0, z: -3.4079998}
        tangentMode: 0
      m_PreInfinity: 2
      m_PostInfinity: 2
      m_RotationOrder: 4
    path: 
  m_ScaleCurves: []
  m_FloatCurves: []
  m_PPtrCurves: []
  m_SampleRate: 24
  m_WrapMode: 0
  m_Bounds:
    m_Center: {x: 0, y: 0, z: 0}
    m_Extent: {x: 0, y: 0, z: 0}
  m_ClipBindingConstant:
    genericBindings:
    - path: 0
      attribute: 1
      script: {fileID: 0}
      classID: 4
      customType: 0
      isPPtrCurve: 0
    pptrCurveMapping: []
  m_AnimationClipSettings:
    serializedVersion: 2
    m_AdditiveReferencePoseClip: {fileID: 0}
    m_AdditiveReferencePoseTime: 0
    m_StartTime: 0
    m_StopTime: 5
    m_OrientationOffsetY: 0
    m_Level: 0
    m_CycleOffset: 0
    m_HasAdditiveReferencePose: 0
    m_LoopTime: 1
    m_LoopBlend: 0
    m_LoopBlendOrientation: 0
    m_LoopBlendPositionY: 0
    m_LoopBlendPositionXZ: 0
    m_KeepOriginalOrientation: 0
    m_KeepOriginalPositionY: 1
    m_KeepOriginalPositionXZ: 0
    m_HeightFromFeet: 0
    m_Mirror: 0
  m_EditorCurves:
  - curve:
      serializedVersion: 2
      m_Curve:
      - time: 0
        value: 42.33
        inSlope: 0
        outSlope: 0
        tangentMode: 10
      - time: 2.5
        value: 42.33
        inSlope: 0
        outSlope: 0
        tangentMode: 10
      - time: 5
        value: 42.33
        inSlope: 0
        outSlope: 0
        tangentMode: 10
      m_PreInfinity: 2
      m_PostInfinity: 2
      m_RotationOrder: 4
    attribute: m_LocalPosition.x
    path: 
    classID: 4
    script: {fileID: 0}
  - curve:
      serializedVersion: 2
      m_Curve:
      - time: 0
        value: -2.28
        inSlope: 0
        outSlope: 0
        tangentMode: 10
      - time: 2.5
        value: -2.28
        inSlope: 0
        outSlope: 0
        tangentMode: 10
      - time: 5
        value: -2.28
        inSlope: 0
        outSlope: 0
        tangentMode: 10
      m_PreInfinity: 2
      m_PostInfinity: 2
      m_RotationOrder: 4
    attribute: m_LocalPosition.y
    path: 
    classID: 4
    script: {fileID: 0}
  - curve:
      serializedVersion: 2
      m_Curve:
      - time: 0
        value: 15.51
        inSlope: 3.3559997
        outSlope: 3.3559997
        tangentMode: 10
      - time: 2.5
        value: 23.9
        inSlope: -0.026000023
        outSlope: -0.026000023
        tangentMode: 10
      - time: 5
        value: 15.38
        inSlope: -3.4079998
        outSlope: -3.4079998
        tangentMode: 10
      m_PreInfinity: 2
      m_PostInfinity: 2
      m_RotationOrder: 4
    attribute: m_LocalPosition.z
    path: 
    classID: 4
    script: {fileID: 0}
  m_EulerEditorCurves: []
  m_HasGenericRootTransform: 1
  m_HasMotionFloatCurves: 0
  m_GenerateMotionCurves: 0
  m_Events: []
