%YAML 1.1
%TAG !u! tag:unity3d.com,2011:
--- !u!74 &7400000
AnimationClip:
  m_ObjectHideFlags: 0
  m_PrefabParentObject: {fileID: 0}
  m_PrefabInternal: {fileID: 0}
  m_Name: New Animation
  serializedVersion: 6
  m_Legacy: 0
  m_Compressed: 0
  m_UseHighQualityCurve: 1
  m_RotationCurves: []
  m_CompressedRotationCurves: []
  m_EulerCurves: []
  m_PositionCurves:
  - curve:
      serializedVersion: 2
      m_Curve:
      - time: 0
        value: {x: -6.63, y: 1.29, z: 0.63}
        inSlope: {x: 0, y: 0.14400016, z: 4.1759996}
        outSlope: {x: 0, y: 0.14400016, z: 4.1759996}
        tangentMode: 0
      - time: 0.41666666
        value: {x: -6.63, y: 1.35, z: 2.37}
        inSlope: {x: 0, y: 0.14057145, z: 4.2137136}
        outSlope: {x: 0, y: 0.14057145, z: 4.2137136}
        tangentMode: 0
      - time: 1
        value: {x: -6.63, y: 1.43, z: 4.85}
        inSlope: {x: 0, y: -0.05142851, z: -1.5042853}
        outSlope: {x: 0, y: -0.05142851, z: -1.5042853}
        tangentMode: 0
      - time: 1.3333334
        value: {x: -6.63, y: 1.35, z: 2.43}
        inSlope: {x: 0, y: -0.20399994, z: -6.1499996}
        outSlope: {x: 0, y: -0.20399994, z: -6.1499996}
        tangentMode: 0
      - time: 1.75
        value: {x: -6.63, y: 1.28, z: 0.33}
        inSlope: {x: 0, y: -0.16800015, z: -5.040001}
        outSlope: {x: 0, y: -0.16800015, z: -5.040001}
        tangentMode: 0
      m_PreInfinity: 2
      m_PostInfinity: 2
      m_RotationOrder: 4
    path: 
  m_ScaleCurves: []
  m_FloatCurves: []
  m_PPtrCurves: []
  m_SampleRate: 60
  m_WrapMode: 0
  m_Bounds:
    m_Center: {x: 0, y: 0, z: 0}
    m_Extent: {x: 0, y: 0, z: 0}
  m_ClipBindingConstant:
    genericBindings:
    - path: 0
      attribute: 1
      script: {fileID: 0}
      classID: 4
      customType: 0
      isPPtrCurve: 0
    pptrCurveMapping: []
  m_AnimationClipSettings:
    serializedVersion: 2
    m_AdditiveReferencePoseClip: {fileID: 0}
    m_AdditiveReferencePoseTime: 0
    m_StartTime: 0
    m_StopTime: 1.75
    m_OrientationOffsetY: 0
    m_Level: 0
    m_CycleOffset: 0
    m_HasAdditiveReferencePose: 0
    m_LoopTime: 1
    m_LoopBlend: 0
    m_LoopBlendOrientation: 0
    m_LoopBlendPositionY: 0
    m_LoopBlendPositionXZ: 0
    m_KeepOriginalOrientation: 0
    m_KeepOriginalPositionY: 1
    m_KeepOriginalPositionXZ: 0
    m_HeightFromFeet: 0
    m_Mirror: 0
  m_EditorCurves:
  - curve:
      serializedVersion: 2
      m_Curve:
      - time: 0
        value: -6.63
        inSlope: 0
        outSlope: 0
        tangentMode: 10
      - time: 0.41666666
        value: -6.63
        inSlope: 0
        outSlope: 0
        tangentMode: 10
      - time: 1
        value: -6.63
        inSlope: 0
        outSlope: 0
        tangentMode: 10
      - time: 1.3333334
        value: -6.63
        inSlope: 0
        outSlope: 0
        tangentMode: 10
      - time: 1.75
        value: -6.63
        inSlope: 0
        outSlope: 0
        tangentMode: 10
      m_PreInfinity: 2
      m_PostInfinity: 2
      m_RotationOrder: 4
    attribute: m_LocalPosition.x
    path: 
    classID: 4
    script: {fileID: 0}
  - curve:
      serializedVersion: 2
      m_Curve:
      - time: 0
        value: 1.29
        inSlope: 0.14400016
        outSlope: 0.14400016
        tangentMode: 10
      - time: 0.41666666
        value: 1.35
        inSlope: 0.14057145
        outSlope: 0.14057145
        tangentMode: 10
      - time: 1
        value: 1.43
        inSlope: -0.05142851
        outSlope: -0.05142851
        tangentMode: 10
      - time: 1.3333334
        value: 1.35
        inSlope: -0.20399994
        outSlope: -0.20399994
        tangentMode: 10
      - time: 1.75
        value: 1.28
        inSlope: -0.16800015
        outSlope: -0.16800015
        tangentMode: 10
      m_PreInfinity: 2
      m_PostInfinity: 2
      m_RotationOrder: 4
    attribute: m_LocalPosition.y
    path: 
    classID: 4
    script: {fileID: 0}
  - curve:
      serializedVersion: 2
      m_Curve:
      - time: 0
        value: 0.63
        inSlope: 4.1759996
        outSlope: 4.1759996
        tangentMode: 10
      - time: 0.41666666
        value: 2.37
        inSlope: 4.2137136
        outSlope: 4.2137136
        tangentMode: 10
      - time: 1
        value: 4.85
        inSlope: -1.5042853
        outSlope: -1.5042853
        tangentMode: 10
      - time: 1.3333334
        value: 2.43
        inSlope: -6.1499996
        outSlope: -6.1499996
        tangentMode: 10
      - time: 1.75
        value: 0.33
        inSlope: -5.040001
        outSlope: -5.040001
        tangentMode: 10
      m_PreInfinity: 2
      m_PostInfinity: 2
      m_RotationOrder: 4
    attribute: m_LocalPosition.z
    path: 
    classID: 4
    script: {fileID: 0}
  m_EulerEditorCurves: []
  m_HasGenericRootTransform: 1
  m_HasMotionFloatCurves: 0
  m_GenerateMotionCurves: 0
  m_Events: []
